<?xml version="1.0" encoding="UTF-8"?>
<svg width="80px" height="80px" viewBox="0 0 80 80" version="1.1" xmlns="http://www.w3.org/2000/svg" xmlns:xlink="http://www.w3.org/1999/xlink">
    <title>Regular-S</title>
    <g id="Page-1" stroke="none" stroke-width="1" fill="none" fill-rule="evenodd">
        <g id="escape" transform="translate(-1410.000000, -621.000000)" fill-rule="nonzero">
            <g id="Symbols" transform="translate(498.895300, 619.032574)">
                <g id="Regular-S" transform="translate(911.540640, 2.349157)">
                    <path d="M39.35546,78.7686586 C44.7591267,78.7686586 49.83726,77.7432686 54.58986,75.6924886 C59.34246,73.6417086 63.5335267,70.7934019 67.16306,67.1475686 C70.79266,63.5017019 73.64096,59.3024686 75.70796,54.5498686 C77.7750267,49.7972686 78.80856,44.7354353 78.80856,39.3643686 C78.80856,33.9933019 77.7913267,28.9558686 75.75686,24.2520686 C73.7223267,19.5482686 70.9391267,15.4060019 67.40726,11.8252686 C63.8753267,8.24453526 59.8062933,5.41250193 55.20016,3.3291686 C50.5940933,1.24583526 45.70316,0.139068597 40.52736,0.00886859696 C39.2578267,-0.0561980697 38.1917267,0.236768597 37.32906,0.887768597 C36.46646,1.53883526 36.03516,2.43403526 36.03516,3.5733686 C36.03516,4.54990193 36.37696,5.41253526 37.06056,6.1612686 C37.74416,6.90993526 38.7207267,7.30053526 39.99026,7.3330686 C44.3847933,7.52840193 48.4781933,8.46430193 52.27046,10.1407686 C56.0627933,11.8171686 59.3831267,14.0876686 62.23146,16.9522686 C65.0797267,19.8168686 67.3095267,23.1616019 68.92086,26.9864686 C70.5321933,30.8113353 71.33786,34.9373019 71.33786,39.3643686 C71.33786,43.7914353 70.5159267,47.9418353 68.87206,51.8155686 C67.2281933,55.6892353 64.94956,59.0909019 62.03616,62.0205686 C59.12276,64.9502886 55.7291933,67.2370886 51.85546,68.8809686 C47.9817933,70.5248486 43.8151267,71.3467886 39.35546,71.3467886 C34.7005267,71.3467886 30.42806,70.4760186 26.53806,68.7344786 C22.6481267,66.9929453 19.2789933,64.6247753 16.43066,61.6299686 C13.5823267,58.6351686 11.3769267,55.2172019 9.81446,51.3760686 C8.25192667,47.5349353 7.47066,43.4822019 7.47066,39.2178686 C7.47066,37.9483353 7.08006,36.9717686 6.29886,36.2881686 C5.51759333,35.6045686 4.63866,35.2627686 3.66206,35.2627686 C2.52276667,35.2627686 1.6276,35.7022353 0.97656,36.5811686 C0.32552,37.4600353 -8.8817842e-16,38.5342353 -8.8817842e-16,39.8037686 C-8.8817842e-16,45.0447019 1.03352667,50.0089019 3.10058,54.6963686 C5.16763333,59.3839019 8.01592667,63.5343019 11.64546,67.1475686 C15.27506,70.7608486 19.4580267,73.6010153 24.19436,75.6680686 C28.9306933,77.7351286 33.9843933,78.7686586 39.35546,78.7686586 Z" id="Path"></path>
                    <path d="M36.32816,41.2686686 C37.4674267,41.2686686 38.4032933,40.9024686 39.13576,40.1700686 C39.86816,39.4376019 40.23436,38.5180019 40.23436,37.4112686 C40.23436,36.3696019 39.8111933,35.4255686 38.96486,34.5791686 L20.11716,15.7315686 L12.30466,8.8467686 C14.35546,9.17230193 16.4550933,9.3594686 18.60356,9.4082686 C20.75196,9.45713526 22.1353933,9.4815686 22.75386,9.4815686 C23.73046,9.4815686 24.56056,9.13163526 25.24416,8.4317686 C25.92776,7.73190193 26.26956,6.8936686 26.26956,5.9170686 C26.26956,4.90800193 25.92776,4.0616686 25.24416,3.3780686 C24.56056,2.6944686 23.73046,2.3526686 22.75386,2.3526686 L5.85936,2.3526686 C2.86457333,2.3526686 1.36718,3.8500686 1.36718,6.8448686 L1.36718,23.6416686 C1.36718,24.6182686 1.71711667,25.4565019 2.41699,26.1563686 C3.11683667,26.8562353 3.93879333,27.2061686 4.88286,27.2061686 C5.85939333,27.2061686 6.68946,26.8562353 7.37306,26.1563686 C8.05666,25.4565019 8.39846,24.6182686 8.39846,23.6416686 C8.39846,23.2836019 8.39846,22.5105019 8.39846,21.3223686 C8.39846,20.1342353 8.36589333,18.7996019 8.30076,17.3184686 C8.23569333,15.8373353 8.12176,14.4782686 7.95896,13.2412686 L14.74606,21.1514686 L33.54496,39.9991686 C34.3912933,40.8455019 35.3190267,41.2686686 36.32816,41.2686686 Z" id="Path"></path>
                </g>
            </g>
        </g>
    </g>
</svg>
