<?xml version="1.0" encoding="UTF-8"?>
<svg width="154px" height="73px" viewBox="0 0 154 73" version="1.1" xmlns="http://www.w3.org/2000/svg" xmlns:xlink="http://www.w3.org/1999/xlink">
    <title>Regular-S</title>
    <g id="Page-1" stroke="none" stroke-width="1" fill="none" fill-rule="evenodd">
        <g id="person.3.sequence" transform="translate(-1373.000000, -625.000000)" fill-rule="nonzero">
            <g id="Symbols" transform="translate(434.369500, 624.222700)">
                <g id="Regular-S" transform="translate(939.136120, 0.781200)">
                    <path d="M10.05858,72.11915 L57.32418,72.11915 C64.0299133,72.11915 67.38278,69.9869867 67.38278,65.72266 C67.38278,63.2161533 66.6178133,60.5306 65.08788,57.666 C63.5579467,54.8014 61.33628,52.1077333 58.42288,49.585 C55.50948,47.0622 51.9694467,44.9951333 47.80278,43.3838 C43.6361133,41.7724667 38.9323133,40.9668 33.69138,40.9668 C28.4505133,40.9668 23.75488,41.7724667 19.60448,43.3838 C15.45408,44.9951333 11.9140467,47.0622 8.98438,49.585 C6.05471333,52.1077333 3.82488,54.8014 2.29488,57.666 C0.76496,60.5306 0,63.2161533 0,65.72266 C0,69.9869867 3.35286,72.11915 10.05858,72.11915 Z M33.69138,35.8399 C36.7513133,35.8399 39.5589467,35.0179333 42.11428,33.374 C44.6696133,31.7301333 46.7041133,29.5247333 48.21778,26.7578 C49.7314467,23.9908667 50.48828,20.9635333 50.48828,17.6758 C50.48828,14.3554667 49.73958,11.3606667 48.24218,8.6914 C46.74478,6.02213333 44.7265467,3.90626667 42.18748,2.3438 C39.6484133,0.781266667 36.81638,0 33.69138,0 C30.6315133,0 27.8239133,0.797533333 25.26858,2.3926 C22.7132467,3.98766667 20.6787467,6.12796667 19.16508,8.8135 C17.6514133,11.4990333 16.89458,14.4856667 16.89458,17.7734 C16.89458,21.0612 17.6595467,24.0722667 19.18948,26.8066 C20.7194133,29.541 22.7539133,31.7301333 25.29298,33.374 C27.8320467,35.0179333 30.6315133,35.8399 33.69138,35.8399 Z M7.86138,65.52735 C7.60091333,65.52735 7.39744667,65.4785233 7.25098,65.38087 C7.10451333,65.28321 7.03128,65.1041733 7.03128,64.84376 C7.03128,63.4114667 7.60908,61.7187467 8.76468,59.7656 C9.92028,57.8124667 11.6292467,55.9081667 13.89158,54.0527 C16.15398,52.1972333 18.93718,50.6510333 22.24118,49.4141 C25.5452467,48.1771 29.36198,47.5586 33.69138,47.5586 C38.0208467,47.5586 41.83758,48.1771 45.14158,49.4141 C48.4456467,50.6510333 51.2288467,52.1972333 53.49118,54.0527 C55.75358,55.9081667 57.46258,57.8124667 58.61818,59.7656 C59.77378,61.7187467 60.35158,63.4114667 60.35158,64.84376 C60.35158,65.1041733 60.28648,65.28321 60.15628,65.38087 C60.02608,65.4785233 59.81448,65.52735 59.52148,65.52735 L7.86138,65.52735 Z M33.69138,29.2481 C31.9661133,29.2481 30.3629467,28.7354 28.88188,27.71 C27.4007467,26.6846 26.2044467,25.3011333 25.29298,23.5596 C24.3815133,21.8180667 23.92578,19.8893333 23.92578,17.7734 C23.92578,15.625 24.37338,13.7125667 25.26858,12.0361 C26.16378,10.3597 27.3519133,9.0332 28.83298,8.0566 C30.3141133,7.08006667 31.93358,6.5918 33.69138,6.5918 C35.48178,6.5918 37.1175467,7.07193333 38.59868,8.0322 C40.0797467,8.99253333 41.2597467,10.3027667 42.13868,11.9629 C43.0176133,13.6230333 43.45708,15.5273333 43.45708,17.6758 C43.45708,19.7916667 43.00948,21.7285 42.11428,23.4863 C41.21908,25.2441667 40.0309133,26.6439333 38.54978,27.6856 C37.0687133,28.7272667 35.4492467,29.2481 33.69138,29.2481 Z" id="Shape"></path>
                    <path d="M76.36718,35.8399 C79.4271133,35.8399 82.22658,35.0179333 84.76558,33.374 C87.3046467,31.7301333 89.3392467,29.5247333 90.86938,26.7578 C92.39938,23.9908667 93.16438,20.9635333 93.16438,17.6758 C93.16438,14.3554667 92.4157133,11.3606667 90.91838,8.6914 C89.4207133,6.02213333 87.4023467,3.90626667 84.86328,2.3438 C82.3242133,0.781266667 79.49218,0 76.36718,0 C73.2747133,0 70.4589467,0.797533333 67.91988,2.3926 C65.38088,3.98766667 63.3545133,6.12796667 61.84078,8.8135 C60.3271133,11.4990333 59.57028,14.4856667 59.57028,17.7734 C59.57028,21.0612 60.3271133,24.0722667 61.84078,26.8066 C63.3545133,29.541 65.3890467,31.7301333 67.94438,33.374 C70.4997133,35.0179333 73.3073133,35.8399 76.36718,35.8399 Z M76.36718,40.9668 C73.2747133,40.9668 70.37758,41.2679 67.67578,41.8701 C64.97398,42.4723 62.46748,43.2779667 60.15628,44.2871 C61.1653467,45.0358333 62.1337467,45.8252333 63.06148,46.6553 C63.98928,47.4853667 64.84378,48.3398667 65.62498,49.2188 C67.1875133,48.7304667 68.8639467,48.3317 70.65428,48.0225 C72.44468,47.7132333 74.34898,47.5586 76.36718,47.5586 C80.6640467,47.5586 84.4726467,48.1771 87.79298,49.4141 C91.1132467,50.6510333 93.9047133,52.1972333 96.16738,54.0527 C98.42938,55.9081667 100.13838,57.8124667 101.29438,59.7656 C102.449713,61.7187467 103.02738,63.4114667 103.02738,64.84376 C103.02738,65.1041733 102.954047,65.28321 102.80738,65.38087 C102.66138,65.4785233 102.458047,65.52735 102.19738,65.52735 L72.60738,65.52735 C72.60738,66.6992233 72.4853133,67.8385467 72.24118,68.94532 C71.9970467,70.05209 71.5169133,71.1100333 70.80078,72.11915 L99.95138,72.11915 C106.68938,72.11915 110.05838,69.9869867 110.05838,65.72266 C110.05838,63.2161533 109.28538,60.5306 107.73938,57.666 C106.19338,54.8014 103.96338,52.1077333 101.04938,49.585 C98.1360467,47.0622 94.60438,44.9951333 90.45438,43.3838 C86.30378,41.7724667 81.6080467,40.9668 76.36718,40.9668 Z M76.36718,29.2481 C74.60938,29.2481 72.9899133,28.7354 71.50878,27.71 C70.0276467,26.6846 68.8395133,25.3011333 67.94438,23.5596 C67.04918,21.8180667 66.60158,19.8893333 66.60158,17.7734 C66.60158,15.625 67.0410133,13.7125667 67.91988,12.0361 C68.7988133,10.3597 69.9788467,9.0332 71.45998,8.0566 C72.9411133,7.08006667 74.5768467,6.5918 76.36718,6.5918 C78.15758,6.5918 79.7933133,7.07193333 81.27438,8.0322 C82.7555133,8.99253333 83.9355467,10.3027667 84.81448,11.9629 C85.6933467,13.6230333 86.13278,15.5273333 86.13278,17.6758 C86.13278,19.7916667 85.6852133,21.7285 84.79008,23.4863 C83.89488,25.2441667 82.7067133,26.6439333 81.22558,27.6856 C79.7444467,28.7272667 78.12498,29.2481 76.36718,29.2481 Z" id="Shape"></path>
                    <path d="M118.99438,35.8399 C122.05438,35.8399 124.862047,35.0179333 127.41738,33.374 C129.972713,31.7301333 132.007047,29.5247333 133.52038,26.7578 C135.03438,23.9908667 135.79138,20.9635333 135.79138,17.6758 C135.79138,14.3554667 135.042713,11.3606667 133.54538,8.6914 C132.04738,6.02213333 130.029047,3.90626667 127.49038,2.3438 C124.951047,0.781266667 122.119047,0 118.99438,0 C115.93438,0 113.126713,0.797533333 110.57138,2.3926 C108.016047,3.98766667 105.98138,6.12796667 104.46738,8.8135 C102.954047,11.4990333 102.19738,14.4856667 102.19738,17.7734 C102.19738,21.0612 102.96238,24.0722667 104.49238,26.8066 C106.02238,29.541 108.056713,31.7301333 110.59538,33.374 C113.134713,35.0179333 115.93438,35.8399 118.99438,35.8399 Z M118.99438,40.9668 C115.93438,40.9668 113.04538,41.2679 110.32738,41.8701 C107.60938,42.4723 105.094713,43.2779667 102.78338,44.2871 C103.792047,45.0683667 104.76038,45.8659 105.68838,46.6797 C106.61638,47.4935 107.487047,48.3561333 108.30038,49.2676 C109.863047,48.7467333 111.539713,48.3317 113.33038,48.0225 C115.12038,47.7132333 117.00838,47.5586 118.99438,47.5586 C123.323713,47.5586 127.14838,48.1771 130.46838,49.4141 C133.789047,50.6510333 136.57238,52.1972333 138.81838,54.0527 C141.06438,55.9081667 142.76538,57.8124667 143.92138,59.7656 C145.076713,61.7187467 145.65438,63.4114667 145.65438,64.84376 C145.65438,65.1041733 145.58938,65.28321 145.45938,65.38087 C145.328713,65.4785233 145.117047,65.52735 144.82438,65.52735 L115.28338,65.52735 C115.28338,66.6992233 115.153047,67.8385467 114.89238,68.94532 C114.63238,70.05209 114.16038,71.1100333 113.47638,72.11915 L142.62738,72.11915 C149.332713,72.11915 152.68538,69.9869867 152.68538,65.72266 C152.68538,63.2161533 151.92038,60.5306 150.39038,57.666 C148.86038,54.8014 146.638713,52.1077333 143.72538,49.585 C140.812047,47.0622 137.272047,44.9951333 133.10538,43.3838 C128.938713,41.7724667 124.235047,40.9668 118.99438,40.9668 Z M118.99438,29.2481 C117.269047,29.2481 115.665713,28.7354 114.18438,27.71 C112.703713,26.6846 111.50738,25.3011333 110.59538,23.5596 C109.684047,21.8180667 109.22838,19.8893333 109.22838,17.7734 C109.22838,15.625 109.676047,13.7125667 110.57138,12.0361 C111.466713,10.3597 112.654713,9.0332 114.13538,8.0566 C115.616713,7.08006667 117.23638,6.5918 118.99438,6.5918 C120.78438,6.5918 122.420047,7.07193333 123.90138,8.0322 C125.382713,8.99253333 126.562713,10.3027667 127.44138,11.9629 C128.320047,13.6230333 128.75938,15.5273333 128.75938,17.6758 C128.75938,19.7916667 128.312047,21.7285 127.41738,23.4863 C126.522047,25.2441667 125.333713,26.6439333 123.85238,27.6856 C122.371047,28.7272667 120.751713,29.2481 118.99438,29.2481 Z" id="Shape"></path>
                </g>
            </g>
        </g>
    </g>
</svg>
