<?xml version="1.0" encoding="UTF-8"?>
<svg width="72px" height="69px" viewBox="0 0 72 69" version="1.1" xmlns="http://www.w3.org/2000/svg" xmlns:xlink="http://www.w3.org/1999/xlink">
    <title>Shape</title>
    <g id="Page-1" stroke="none" stroke-width="1" fill="none" fill-rule="evenodd">
        <g id="slider.vertical.3" transform="translate(-1414.000000, -624.000000)" fill="#000000" fill-rule="nonzero">
            <g id="Symbols" transform="translate(504.926500, 619.730500)">
                <g id="Regular-S" transform="translate(909.569120, 4.687500)">
                    <path d="M1.77635684e-15,44.8242 C1.77635684e-15,46.582 0.431326667,48.1770333 1.29398,49.6093 C2.15658,51.0416333 3.31218,52.1891 4.76078,53.0517 C6.20931333,53.9143667 7.81248,54.3457 9.57028,54.3457 C11.2955467,54.3457 12.88248,53.9143667 14.33108,53.0517 C15.7796133,52.1891 16.9352133,51.0416333 17.79788,49.6093 C18.66048,48.1770333 19.09178,46.582 19.09178,44.8242 C19.09178,43.0664 18.66048,41.4632 17.79788,40.0146 C16.9352133,38.5660667 15.7796133,37.4104667 14.33108,36.5478 C12.88248,35.6852 11.2955467,35.2539 9.57028,35.2539 C7.81248,35.2539 6.20931333,35.6852 4.76078,36.5478 C3.31218,37.4104667 2.15658,38.5660667 1.29398,40.0146 C0.431326667,41.4632 1.77635684e-15,43.0664 1.77635684e-15,44.8242 Z M5.22458,44.8242 C5.22458,43.6197333 5.64778,42.5943333 6.49418,41.748 C7.34051333,40.9016667 8.36588,40.4785 9.57028,40.4785 C10.80728,40.4785 11.8408133,40.9016667 12.67088,41.748 C13.5009467,42.5943333 13.91598,43.6197333 13.91598,44.8242 C13.91598,46.0612 13.5009467,47.0947333 12.67088,47.9248 C11.8408133,48.7548667 10.80728,49.1699 9.57028,49.1699 C8.36588,49.1699 7.34051333,48.7548667 6.49418,47.9248 C5.64778,47.0947333 5.22458,46.0612 5.22458,44.8242 Z M9.57028,0 C8.56121333,0 7.72301333,0.3418 7.05568,1.0254 C6.38834667,1.709 6.05468,2.55533333 6.05468,3.5644 L6.05468,38.7695 L13.08598,38.7695 L13.08598,3.5644 C13.08598,2.55533333 12.74418,1.709 12.06058,1.0254 C11.37698,0.3418 10.54688,0 9.57028,0 Z M9.57028,68.1152 C10.54688,68.1152 11.37698,67.7815433 12.06058,67.11423 C12.74418,66.44691 13.08598,65.6737967 13.08598,64.79489 L13.08598,51.5625 L6.05468,51.5625 L6.05468,64.79489 C6.05468,65.6737967 6.38834667,66.44691 7.05568,67.11423 C7.72301333,67.7815433 8.56121333,68.1152 9.57028,68.1152 Z M25.78128,23.1933 C25.78128,24.9511 26.21258,26.5461667 27.07518,27.9785 C27.9378467,29.4107667 29.0934467,30.5582333 30.54198,31.4209 C31.99058,32.2835 33.59378,32.7148 35.35158,32.7148 C37.10938,32.7148 38.7044133,32.2835 40.13668,31.4209 C41.5690133,30.5582333 42.71648,29.4107667 43.57908,27.9785 C44.4417467,26.5461667 44.87308,24.9511 44.87308,23.1933 C44.87308,21.4355 44.4417467,19.8323333 43.57908,18.3838 C42.71648,16.9352 41.5690133,15.7796 40.13668,14.917 C38.7044133,14.0543333 37.10938,13.623 35.35158,13.623 C33.59378,13.623 31.99058,14.0543333 30.54198,14.917 C29.0934467,15.7796 27.9378467,16.9352 27.07518,18.3838 C26.21258,19.8323333 25.78128,21.4355 25.78128,23.1933 Z M31.00588,23.1933 C31.00588,21.9889 31.4290467,20.9635333 32.27538,20.1172 C33.1217133,19.2708 34.1471133,18.8476 35.35158,18.8476 C36.58858,18.8476 37.6221133,19.2708 38.45218,20.1172 C39.2822467,20.9635333 39.69728,21.9889 39.69728,23.1933 C39.69728,24.4303 39.2822467,25.4638333 38.45218,26.2939 C37.6221133,27.1239667 36.58858,27.539 35.35158,27.539 C34.1471133,27.539 33.1217133,27.1239667 32.27538,26.2939 C31.4290467,25.4638333 31.00588,24.4303 31.00588,23.1933 Z M35.35158,0 C34.37498,0 33.5449133,0.333633333 32.86138,1.0009 C32.17778,1.66823333 31.83598,2.45763333 31.83598,3.3691 L31.83598,16.455 L38.86718,16.455 L38.86718,3.3691 C38.86718,2.45763333 38.52538,1.66823333 37.84178,1.0009 C37.15818,0.333633333 36.3281133,0 35.35158,0 Z M35.35158,68.1152 C36.3281133,68.1152 37.15818,67.7734033 37.84178,67.08981 C38.52538,66.4062167 38.86718,65.57614 38.86718,64.59958 L38.86718,29.248 L31.83598,29.248 L31.83598,64.59958 C31.83598,65.57614 32.17778,66.4062167 32.86138,67.08981 C33.5449133,67.7734033 34.37498,68.1152 35.35158,68.1152 Z M51.56248,44.8242 C51.56248,46.582 51.9938133,48.1770333 52.85648,49.6093 C53.71908,51.0416333 54.87468,52.1891 56.32328,53.0517 C57.7718133,53.9143667 59.37498,54.3457 61.13278,54.3457 C62.8906467,54.3457 64.4938467,53.9143667 65.94238,53.0517 C67.39098,52.1891 68.54658,51.0416333 69.40918,49.6093 C70.2718467,48.1770333 70.70318,46.582 70.70318,44.8242 C70.70318,43.0664 70.2718467,41.4632 69.40918,40.0146 C68.54658,38.5660667 67.39098,37.4104667 65.94238,36.5478 C64.4938467,35.6852 62.8906467,35.2539 61.13278,35.2539 C59.37498,35.2539 57.7718133,35.6852 56.32328,36.5478 C54.87468,37.4104667 53.71908,38.5660667 52.85648,40.0146 C51.9938133,41.4632 51.56248,43.0664 51.56248,44.8242 Z M56.78708,44.8242 C56.78708,43.6197333 57.21028,42.5943333 58.05668,41.748 C58.9030133,40.9016667 59.92838,40.4785 61.13278,40.4785 C62.36978,40.4785 63.4033133,40.9016667 64.23338,41.748 C65.0634467,42.5943333 65.47848,43.6197333 65.47848,44.8242 C65.47848,46.0612 65.0634467,47.0947333 64.23338,47.9248 C63.4033133,48.7548667 62.36978,49.1699 61.13278,49.1699 C59.92838,49.1699 58.9030133,48.7548667 58.05668,47.9248 C57.21028,47.0947333 56.78708,46.0612 56.78708,44.8242 Z M61.13278,0 C60.1562467,0 59.32618,0.3418 58.64258,1.0254 C57.95898,1.709 57.61718,2.55533333 57.61718,3.5644 L57.61718,39.1113 L64.64848,39.1113 L64.64848,3.5644 C64.64848,2.55533333 64.30668,1.709 63.62308,1.0254 C62.93948,0.3418 62.10938,0 61.13278,0 Z M61.13278,68.1152 C62.10938,68.1152 62.93948,67.7815433 63.62308,67.11423 C64.30668,66.44691 64.64848,65.6737967 64.64848,64.79489 L64.64848,50.8789 L57.61718,50.8789 L57.61718,64.79489 C57.61718,65.6737967 57.95898,66.44691 58.64258,67.11423 C59.32618,67.7815433 60.1562467,68.1152 61.13278,68.1152 Z" id="Shape"></path>
                </g>
            </g>
        </g>
    </g>
</svg>